…
d1 <- bind_rows(d1[, 1:2], d1[, 3:4])
d2 <- bind_rows(d2[, 1:2], d2[, 3:4])

# まとめるのむり
bind_rows(d1, d2) %>% 
  group_by(コード) %>% 
  arrange(コード) %>% 
  filter(n_distinct(対応する内容) > 1)
```

    ## # A tibble: 36 x 2
    ## # Groups:   コード [18]
    ##    コード 対応する内容              
    ##    <chr>  <chr>                     
    ##  1 103    養護老人ホーム（一般      
    ##  2 103    養護老人ホーム（一般）    
    ##  3 106    軽費老人ホーム（A型）     
    ##  4 106    軽費老人ホーム（ A型）    
    ##  5 107    軽費老人ホーム（B型）     
    ##  6 107    軽費老人ホーム（ B型）    
    ##  7 109    老人福祉センター（特A型） 
    ##  8 109    老人福祉センター（特 A型）
    ##  9 110    老人福祉センター（A型）   
    ## 10 110    老人福祉センター（ A型）  
    ## # … with 26 more rows
…
